{
    "title": "Fuzz - Βρες το λάθος - Β1",
    "map_image_url" : "activities/a_05/fuzz-b1.png",
    "points" : [
        { "title":"Βρες το λάθος βελάκι",  "coords":"806,643,690,529", "shape":"rect"}
    ]
}
