{
    "title": "Fuzz - Βρες το λάθος - Β2",
    "map_image_url" : "activities/a_06/fuzz-b2.png",
    "allow_help" : "false",
    "points" : [
        { "title":"Βρες το λάθος βελάκι",  "coords":"714,560,833,679", "shape":"rect"}
    ]
}
