{
    "title": "Fuzz - Βρες τον σωστό Fuzz - Γ2",
    "map_image_url" : "activities/a_09/fuzz-g2.png",
    "allow_help" : "false",
    "points" : [
        { "title":"Βρες το λάθος βελάκι",  "coords":"643,604,772,705", "shape":"rect"}
    ]
}
