{
    "title": "Επεξεργασία κειμένου Β τάξης - Πολύ βασικά ουμπιά μορφοποίησης - Μετά τις ασκήσεις της σειράς 04",
    "map_image_url" : "activities/b_01/libreoffice-ribbon-formatting.png",
    "points" : [
        { "title":"Έντονα γράμματα",  "coords":"235,153,282,204", "shape":"rect"},
        { "title":"Πλάγια γράμματα",  "coords":"288,154,332,204", "shape":"rect"},
        { "title":"Υπογραμμισμένα γράμματα",  "coords":"335,153,377,207", "shape":"rect"},
        { "title":"Μέγεθος γραμματοσειράς",  "coords":"537,88,647,152", "shape":"rect"},
        { "title":"Χρώμα γραμματοσειράς",  "coords":"671,153,747,202", "shape":"rect"}
    ]
}
